<svg width="32" height="26" viewBox="0 0 32 26" fill="none" xmlns="http://www.w3.org/2000/svg">
<rect y="3" width="32" height="23" rx="5" fill="#D1D4E8"/>
<path d="M10 5C10 2.23858 12.2386 0 15 0H17C19.7614 0 22 2.23858 22 5V6C22 7.10457 21.1046 8 20 8H12C10.8954 8 10 7.10457 10 6V5Z" fill="#D1D4E8"/>
<rect x="3" y="2" width="5" height="10" rx="2" fill="#D1D4E8"/>
<circle cx="16" cy="15" r="7" fill="white"/>
</svg>
