<svg width="140" height="54" viewBox="0 0 140 54" fill="none" xmlns="http://www.w3.org/2000/svg">
<path d="M20.535 36.5056L18.9565 33.2009H8.32116L6.74266 36.5056H0V35.5297L12.1356 9.88391H15.1015L27.2762 35.5297V36.5056H20.5335H20.535ZM16.7205 27.4559L13.5997 20.548L10.5571 27.4559H16.7205ZM43.8809 21.561L33.3252 10.1454H30.7822V36.5056H37.8333V24.7899L43.5348 30.6477H44.3052L50.0457 24.7899V36.5056H57.0954V10.1454H54.6306L43.8809 21.561ZM82.8308 10.2211H62.4116V16.2289H72.4286L61.4109 35.4912V36.5056H79.3204L82.9466 30.4977H71.774L82.8308 11.2355V10.2211Z" fill="#333E53"/>
<path d="M121.812 14.0388L118.631 0L98.2117 6.24358L105.177 9.97401L89.8558 36.8543H103.014L111.533 21.7482L106.104 18.8407L121.812 14.0388Z" fill="#FCBD2B"/>
<path d="M121.85 14.0988L135.558 9.90833L140 29.5049L133.263 25.8973L127.036 36.8586H112.328L112.331 36.8543H114.279L120.033 26.4345L125.282 29.2463L121.85 14.0988ZM64.1074 49.5858H60.684C60.6058 55.5293 71.8899 55.375 71.8899 49.7015C71.8899 46.3254 69.1963 45.9782 66.4448 45.6882C65.1993 45.5539 64.1682 45.341 64.2479 44.318C64.3666 42.7178 68.0884 42.5621 68.0884 44.3566H71.454C71.5336 38.5302 60.7636 38.5302 60.8824 44.3566C60.9215 47.2898 62.9025 48.2928 65.9118 48.5056C67.2963 48.5828 68.4461 48.7371 68.4461 49.6829C68.4461 51.2645 64.1089 51.3031 64.1089 49.5858H64.1074ZM73.422 46.9626C73.4423 51.5546 77.0062 53.8705 80.5296 53.8505C83.4795 53.8505 86.5873 52.3461 87.1028 48.5256H83.6186C83.242 49.9715 82.0343 50.7059 80.5296 50.7059C78.4312 50.6859 77.0844 48.9485 77.0844 46.9626C77.0844 44.7238 78.4515 43.1993 80.5311 43.1993C82.014 43.1993 83.0639 43.8165 83.5577 45.1867H87.0435C86.5076 41.5791 83.3999 40.0547 80.5296 40.0547C77.0062 40.0547 73.4423 42.3692 73.422 46.9626ZM109.839 50.8016C108.811 50.8016 107.722 50.2616 107.722 49.1614V40.209H104.336V49.22C104.336 52.1918 107.008 53.9091 109.839 53.9091C112.69 53.9091 115.364 52.1918 115.364 49.22V40.209H111.937V49.1614C111.937 50.2616 110.869 50.8016 109.839 50.8016ZM120.273 43.2965V53.7162H123.778V43.2965H127.162V40.209H116.867V43.295H120.273V43.2965ZM102.872 46.9812C102.872 37.6415 88.6567 37.6415 88.6567 46.9812C88.6567 56.3394 102.872 56.3394 102.872 46.9812ZM92.3003 46.9812C92.3003 42.1192 99.2486 42.1192 99.2486 46.9812C99.2486 51.8817 92.3003 51.8817 92.3003 46.9812Z" fill="#FF8E12"/>
</svg>
