<svg width="36" height="17" viewBox="0 0 36 17" fill="none" xmlns="http://www.w3.org/2000/svg">
<path d="M3.85942 1.4526V6.12996C3.85942 6.12996 5.56549 6.12996 6.47856 6.06301C7.19661 5.94156 7.32878 5.8746 7.46095 5.18094L7.72528 4.16497H8.50619L8.37402 6.38531L8.44333 8.66016H7.65597L7.46095 7.77186C7.26592 7.1397 7.00159 7.01125 6.47856 6.95052C5.82418 6.88357 3.85942 6.88357 3.85942 6.88357V10.8065C3.85942 11.5609 4.25592 11.8832 5.16899 11.8832H7.92031C8.77052 11.8832 9.61993 11.8163 10.1494 10.6181L10.861 9.09768H11.5218C11.4525 9.41376 11.1253 12.1993 11.0625 12.826C11.0625 12.826 8.5755 12.7653 7.53025 12.7653H2.81417L0 12.826V12.1386L0.913076 11.944C1.57391 11.8163 1.76893 11.6279 1.76893 11.1226C1.76893 11.1226 1.83824 9.41376 1.83824 6.56671C1.83824 3.72666 1.76893 2.01703 1.76893 2.01703C1.76893 1.45104 1.57391 1.32336 0.913076 1.19569L0 1.00884V0.315178L2.75132 0.369674H7.98961C9.03485 0.369674 10.7973 0.1875 10.7973 0.1875C10.7973 0.1875 10.7345 1.25797 10.6652 3.78816H9.94712L9.68279 2.89987C9.42491 1.76245 9.03405 1.19646 8.31036 1.19646H4.19306C3.85942 1.19724 3.85942 1.25797 3.85942 1.4526ZM14.4617 1.95163H15.2491V4.60951L17.9375 4.48183L17.8054 5.6862L15.1862 5.49157V10.1752C15.1862 11.501 15.6456 12.0117 16.4329 12.0117C17.1445 12.0117 17.6732 11.6287 17.8682 11.3126L18.2583 11.7563C17.8682 12.6384 16.7601 13.0822 15.7084 13.0822C14.4053 13.0822 13.3472 12.3278 13.3472 10.8743V5.55774H11.7854V4.92559C13.0957 4.79791 14.0717 4.03729 14.4617 1.95163ZM20.0965 10.1074L20.6187 11.3118C20.8138 11.8163 21.2731 12.3278 22.3184 12.3278C23.4329 12.3278 23.8923 11.7563 23.8923 11.0627C23.8923 8.90928 19.5042 9.54222 19.5042 6.63444C19.5042 4.99254 20.8766 4.22569 22.6456 4.22569C23.4329 4.22569 24.6103 4.35337 25.2019 4.60873C25.0697 5.24089 25.0004 6.06223 25.0004 6.69517L24.3516 6.75589L23.8923 5.49079C23.7601 5.18094 23.2314 4.92481 22.5827 4.92481C21.7953 4.92481 21.0088 5.24089 21.0088 6.06223C21.0088 8.02099 25.529 7.58268 25.529 10.4905C25.529 12.1386 24.0244 13.0207 22.1862 13.0207C20.8138 13.0207 19.4349 12.5099 19.4349 12.5099C19.5671 11.7556 19.5042 10.935 19.4349 10.1074H20.0965ZM25.2027 16.1776C25.3977 15.4839 25.5299 14.6026 25.662 13.775L26.3801 13.7143L26.6444 15.0401C26.7073 15.3562 26.9023 15.6116 27.4253 15.6116C28.2755 15.6116 29.3901 15.1071 30.441 13.3367C29.9751 12.26 28.6027 8.78706 27.356 6.12918C27.0288 5.43007 26.9659 5.36856 26.5122 5.24089L26.1786 5.11944V4.48105L28.149 4.548L30.5667 4.42032V5.05326L29.9752 5.18094C29.5158 5.24167 29.3264 5.49079 29.3264 5.74693C29.3264 5.81388 29.3264 5.8746 29.3893 6.00228C29.515 6.38531 30.5667 9.22614 31.354 11.1234C32.0028 9.79758 33.2495 6.82362 33.4445 6.31836C33.5138 6.06301 33.5767 6.00228 33.5767 5.81388C33.5767 5.49157 33.3817 5.30317 32.9279 5.18172L32.4621 5.05326V4.4211L34.3004 4.48183L36 4.4211V5.05326L35.6728 5.30239C35.0184 5.55774 34.9491 5.61847 34.6904 6.12918L31.8134 12.6368C30.1073 16.3714 28.3384 16.6875 27.0973 16.6875C26.3108 16.6883 25.7192 16.4936 25.2027 16.1776Z" fill="#B2B4CF"/>
</svg>
