<svg width="120" height="60" viewBox="0 0 120 60" fill="none" xmlns="http://www.w3.org/2000/svg">
<path d="M1.49272 36.5L4.01573 41.5145L6.54075 36.5H8.03347L4.01573 44.5L0 36.5H1.49272Z" fill="#333333"/>
<path d="M11.046 36.5H12.5523V44.5H11.046V36.5Z" fill="#333333"/>
<path d="M21.5992 44.5L20.0848 41.8371H17.8693V44.5H16.569V36.5H20.4922C21.737 36.5062 22.8053 37.4057 23.0464 38.6509C23.2876 39.8961 22.6349 41.1422 21.4857 41.6303L23.0959 44.5H21.5992ZM20.4922 37.8371H17.8693V40.4886L20.4922 40.5C21.1956 40.4749 21.7532 39.8862 21.7532 39.1686C21.7532 38.4509 21.1956 37.8622 20.4922 37.8371ZM31.9781 43.1629H28.2844L27.6023 44.5H26.1088L30.1263 36.5L34.1423 44.5H32.6488L31.9781 43.1629ZM28.9453 41.8371H31.3074L30.1263 39.4853L28.9453 41.8371Z" fill="#333333"/>
<path d="M37.6569 36.5H38.9066V43.163H42.6778V44.5H37.6569V36.5Z" fill="#333333"/>
<path d="M70.795 36.5H72.0417V43.163H75.8159V44.5H70.795V36.5Z" fill="#31CEFD"/>
<path d="M83.6952 43.1629H80.0015L79.3178 44.5H77.8243L81.8402 36.5L85.8578 44.5H84.3675L83.6952 43.1629ZM80.6608 41.8371H83.0229L81.8418 39.4853L80.6608 41.8371ZM93.8908 41.1612C93.905 42.0482 93.5585 42.9017 92.9336 43.5195C92.0012 44.4761 90.5934 44.7631 89.3714 44.2457C88.1495 43.7283 87.3562 42.5093 87.3641 41.1612L87.364 36.5H88.6627V41.1612C88.6527 41.6887 88.8571 42.1968 89.2275 42.5655C89.5911 42.9473 90.0933 43.1596 90.6155 43.1522C91.692 43.1409 92.5638 42.2579 92.581 41.1612V36.5H93.8908V41.1612Z" fill="#31CEFD"/>
<path d="M95.8996 36.5L101.116 41.288V36.5H102.427V44.5L97.1985 39.712V44.4885H95.8996V36.5Z" fill="#31CEFD"/>
<path d="M108.768 36.5001C109.276 36.4963 109.78 36.6022 110.248 36.811C110.702 37.0167 111.114 37.31 111.464 37.6755L110.561 38.6197C110.092 38.1113 109.443 37.828 108.768 37.8367C108.427 37.8345 108.09 37.9054 107.777 38.045C107.474 38.1779 107.2 38.3715 106.968 38.6148C106.736 38.8584 106.549 39.1456 106.418 39.4614C106.146 40.1235 106.146 40.8733 106.418 41.5354C106.548 41.8499 106.733 42.1368 106.962 42.382C107.193 42.6262 107.468 42.8199 107.771 42.9518C108.086 43.0911 108.425 43.162 108.768 43.1601C109.44 43.1673 110.087 42.8889 110.561 42.3885L111.464 43.3213C111.114 43.6868 110.702 43.9801 110.248 44.1858C109.3 44.6047 108.23 44.6047 107.281 44.1858C106.828 43.9813 106.416 43.6904 106.065 43.3278C105.715 42.9646 105.435 42.534 105.24 42.0596C104.836 41.072 104.836 39.9541 105.24 38.9665C105.435 38.4894 105.715 38.0556 106.065 37.6885C106.415 37.323 106.827 37.0297 107.281 36.8241C107.75 36.6088 108.256 36.4985 108.768 36.5001Z" fill="#31CEFD"/>
<path d="M113.473 36.5H114.772V39.831H118.69V36.5H120V44.4965H118.69V41.169H114.772V44.5H113.473V36.5Z" fill="#31CEFD"/>
<path d="M68.1489 60L57.7406 39.3115L47.3322 60H41.1715L57.7406 27L74.3096 60H68.1489Z" fill="#31CEFD"/>
<path d="M68.1489 33L57.7406 12.3155L47.3322 33H41.1715L57.7406 0L74.3096 33H68.1489Z" fill="#333333"/>
</svg>
